# Blender MTL File: 'None'
# Material Count: 1

newmtl lambert2SG.001
Ns 0.000000
Ka 1.000000 1.000000 1.000000
Kd 0.162315 0.155313 0.111659
Ks 0.500000 0.500000 0.500000
Ke 0.000000 0.000000 0.000000
Ni 1.450000
d 1.000000
illum 2
